[api-updater (non-obsolete-error-filter)] 16/12/2021 09:49:43 : Starting F:/Unity/Editor/Data/Tools/ScriptUpdater/APIUpdater.NonObsoleteApiUpdaterDetector.exe
[api-updater (non-obsolete-error-filter)] 
----------------------------------
jit/startup time      : 860.3167ms
moved types parse time: 215ms
candidates parse time : 39ms
C# parse time         : 890ms
candidates check time : 72ms
console write time    : 14ms

[api-updater (non-obsolete-error-filter)] 16/12/2021 10:19:20 : Starting F:/Unity/Editor/Data/Tools/ScriptUpdater/APIUpdater.NonObsoleteApiUpdaterDetector.exe
[api-updater (non-obsolete-error-filter)] 
----------------------------------
jit/startup time      : 57.6966ms
moved types parse time: 39ms
candidates parse time : 0ms
C# parse time         : 144ms
candidates check time : 21ms
console write time    : 0ms

[api-updater (non-obsolete-error-filter)] 16/12/2021 12:07:42 : Starting F:/Unity/Editor/Data/Tools/ScriptUpdater/APIUpdater.NonObsoleteApiUpdaterDetector.exe
[api-updater (non-obsolete-error-filter)] 
----------------------------------
jit/startup time      : 64.8263ms
moved types parse time: 39ms
candidates parse time : 1ms
C# parse time         : 145ms
candidates check time : 21ms
console write time    : 0ms

[api-updater (non-obsolete-error-filter)] 26/12/2021 16:05:06 : Starting F:/Unity/Editor/Data/Tools/ScriptUpdater/APIUpdater.NonObsoleteApiUpdaterDetector.exe
[api-updater (non-obsolete-error-filter)] 
----------------------------------
jit/startup time      : 763.3542ms
moved types parse time: 127ms
candidates parse time : 29ms
C# parse time         : 818ms
candidates check time : 69ms
console write time    : 6ms

[api-updater (non-obsolete-error-filter)] 26/12/2021 16:59:39 : Starting F:/Unity/Editor/Data/Tools/ScriptUpdater/APIUpdater.NonObsoleteApiUpdaterDetector.exe
[api-updater (non-obsolete-error-filter)] 
----------------------------------
jit/startup time      : 124.6047ms
moved types parse time: 40ms
candidates parse time : 1ms
C# parse time         : 214ms
candidates check time : 39ms
console write time    : 0ms

[api-updater (non-obsolete-error-filter)] 04/01/2022 13:44:15 : Starting F:/Unity/Editor/Data/Tools/ScriptUpdater/APIUpdater.NonObsoleteApiUpdaterDetector.exe
[api-updater (non-obsolete-error-filter)] 
----------------------------------
jit/startup time      : 760.0933ms
moved types parse time: 42ms
candidates parse time : 0ms
C# parse time         : 194ms
candidates check time : 39ms
console write time    : 0ms

[api-updater (non-obsolete-error-filter)] 04/01/2022 14:47:04 : Starting F:/Unity/Editor/Data/Tools/ScriptUpdater/APIUpdater.NonObsoleteApiUpdaterDetector.exe
[api-updater (non-obsolete-error-filter)] 
----------------------------------
jit/startup time      : 77.5633ms
moved types parse time: 38ms
candidates parse time : 0ms
C# parse time         : 137ms
candidates check time : 22ms
console write time    : 0ms

[api-updater (non-obsolete-error-filter)] 04/01/2022 14:47:25 : Starting F:/Unity/Editor/Data/Tools/ScriptUpdater/APIUpdater.NonObsoleteApiUpdaterDetector.exe
[api-updater (non-obsolete-error-filter)] 
----------------------------------
jit/startup time      : 59.0665ms
moved types parse time: 40ms
candidates parse time : 0ms
C# parse time         : 139ms
candidates check time : 22ms
console write time    : 0ms

[api-updater (non-obsolete-error-filter)] 04/01/2022 14:52:08 : Starting F:/Unity/Editor/Data/Tools/ScriptUpdater/APIUpdater.NonObsoleteApiUpdaterDetector.exe
[api-updater (non-obsolete-error-filter)] 
----------------------------------
jit/startup time      : 54.7644ms
moved types parse time: 39ms
candidates parse time : 0ms
C# parse time         : 148ms
candidates check time : 32ms
console write time    : 0ms

[api-updater (non-obsolete-error-filter)] 19/02/2022 14:26:22 : Starting F:/Unity/Editor/Data/Tools/ScriptUpdater/APIUpdater.NonObsoleteApiUpdaterDetector.exe
[api-updater (non-obsolete-error-filter)] 
----------------------------------
jit/startup time      : 788.7883ms
moved types parse time: 127ms
candidates parse time : 48ms
C# parse time         : 634ms
candidates check time : 67ms
console write time    : 7ms

[api-updater (non-obsolete-error-filter)] 19/02/2022 14:27:51 : Starting F:/Unity/Editor/Data/Tools/ScriptUpdater/APIUpdater.NonObsoleteApiUpdaterDetector.exe
[api-updater (non-obsolete-error-filter)] 
----------------------------------
jit/startup time      : 69.8955ms
moved types parse time: 39ms
candidates parse time : 0ms
C# parse time         : 147ms
candidates check time : 35ms
console write time    : 0ms

[api-updater (non-obsolete-error-filter)] 19/02/2022 14:27:56 : Starting F:/Unity/Editor/Data/Tools/ScriptUpdater/APIUpdater.NonObsoleteApiUpdaterDetector.exe
[api-updater (non-obsolete-error-filter)] 
----------------------------------
jit/startup time      : 54.8609ms
moved types parse time: 40ms
candidates parse time : 0ms
C# parse time         : 146ms
candidates check time : 38ms
console write time    : 0ms

[api-updater (non-obsolete-error-filter)] 19/02/2022 14:27:58 : Starting F:/Unity/Editor/Data/Tools/ScriptUpdater/APIUpdater.NonObsoleteApiUpdaterDetector.exe
[api-updater (non-obsolete-error-filter)] 
----------------------------------
jit/startup time      : 48.4844ms
moved types parse time: 39ms
candidates parse time : 1ms
C# parse time         : 148ms
candidates check time : 37ms
console write time    : 0ms

